{
    "homepage": "https://gitlab.com/cogumbreiro/turing/",
    "description": "The foundations of the Theory of Computation formalized in Coq.",
    "license": "MIT",
    "version": "2021.09.1",
    "url": "https://cogumbreiro.github.io/teaching/cs420/f22/turing.zip",
    "hash": "b7dc9b43053cfd8287c72fe81872e4f9cdf5c4a669f0112d06cdc8af30bba8e5",
    "depends": "coq@2022.04.0",
    "installer": {
      "script": "Copy-Item \"$dir\\Turing\" \"$(appdir coq $global)\\current\\lib\\coq\\user-contrib\" -Force -Recurse"
    },
    "uninstaller": {
      "script": "Remove-Item \"$(appdir coq $global)\\current\\lib\\coq\\user-contrib\\Turing\""
    }
}
